{
  "_class": "shapePath",
  "booleanOperation": 1,
  "do_objectID": "DD2216C6-3AE6-41EC-A950-5EE7B942D9A3",
  "edited": true,
  "exportOptions": {
    "_class": "exportOptions",
    "exportFormats": [
    ],
    "includedLayerIds": [
    ],
    "layerOptions": 0,
    "shouldTrim": false
  },
  "frame": {
    "_class": "rect",
    "constrainProportions": true,
    "height": 13.33000002302227,
    "width": 13.32999992370605,
    "x": 1.330078125,
    "y": 1.329986572265625
  },
  "isFlippedHorizontal": false,
  "isFlippedVertical": false,
  "isLocked": false,
  "isVisible": true,
  "layerListExpandedType": 0,
  "name": "Shape",
  "nameIsFixed": false,
  "path": {
    "_class": "path",
    "isClosed": true,
    "pointRadiusBehaviour": 0,
    "points": [
      {
        "_class": "curvePoint",
        "cornerRadius": 0,
        "curveFrom": "{1.0000000026618361, 0.32136720832756932}",
        "curveMode": 4,
        "curveTo": "{1, 0.50000000372529041}",
        "hasCurveFrom": true,
        "hasCurveTo": false,
        "point": "{1, 0.50000000372529041}"
      },
      {
        "_class": "curvePoint",
        "cornerRadius": 0,
        "curveFrom": "{0.5952994626783733, -0.022329099616816575}",
        "curveMode": 2,
        "curveTo": "{0.90470054162322111, 0.15630369731771634}",
        "hasCurveFrom": true,
        "hasCurveTo": true,
        "point": "{0.75000000215079721, 0.066987298850449892}"
      },
      {
        "_class": "curvePoint",
        "cornerRadius": 0,
        "curveFrom": "{0.095299458376778681, 0.15630369731771623}",
        "curveMode": 2,
        "curveTo": "{0.40470053732162653, -0.022329099616816679}",
        "hasCurveFrom": true,
        "hasCurveTo": true,
        "point": "{0.2499999978492026, 0.066987298850449781}"
      },
      {
        "_class": "curvePoint",
        "cornerRadius": 0,
        "curveFrom": "{-2.7755575615628914e-17, 0.77614237658326612}",
        "curveMode": 3,
        "curveTo": "{-2.6618360663791898e-09, 0.32136720832756915}",
        "hasCurveFrom": true,
        "hasCurveTo": true,
        "point": "{0, 0.5000000037252903}"
      },
      {
        "_class": "curvePoint",
        "cornerRadius": 0,
        "curveFrom": "{0.77614237491539662, 1}",
        "curveMode": 2,
        "curveTo": "{0.22385762508460325, 1}",
        "hasCurveFrom": true,
        "hasCurveTo": true,
        "point": "{0.49999999999999994, 1}"
      },
      {
        "_class": "curvePoint",
        "cornerRadius": 0,
        "curveFrom": "{1, 0.5000000037252903}",
        "curveMode": 4,
        "curveTo": "{1, 0.77614237658326612}",
        "hasCurveFrom": false,
        "hasCurveTo": true,
        "point": "{1, 0.5000000037252903}"
      }
    ]
  },
  "resizingConstraint": 63,
  "resizingType": 0,
  "rotation": 0,
  "shouldBreakMaskChain": false
}