[
	{
		"objectId": "593C3665-021F-4EB3-95B1-4A53CFAB9026",
		"kind": "artboard",
		"name": "navigation_7",
		"originalName": "navigation_7",
		"maskFrame": null,
		"layerFrame": {
			"x": -55,
			"y": 368,
			"width": 1280,
			"height": 383
		},
		"visible": true,
		"metadata": {},
		"backgroundColor": "rgba(255, 255, 255, 1)",
		"children": [
			{
				"objectId": "1F477821-638A-4F3C-B971-7C9FA791A86C",
				"kind": "group",
				"name": "dropdown",
				"originalName": "dropdown",
				"maskFrame": null,
				"layerFrame": {
					"x": 74,
					"y": 50,
					"width": 292,
					"height": 318
				},
				"visible": true,
				"metadata": {
					"opacity": 1
				},
				"image": {
					"path": "images/Layer-dropdown-muy0nzc4.jpg",
					"frame": {
						"x": 74,
						"y": 50,
						"width": 292,
						"height": 318
					}
				},
				"children": []
			},
			{
				"objectId": "5605B03C-1930-46F8-82E2-4982D2E6BEFB",
				"kind": "group",
				"name": "search_actions",
				"originalName": "search-actions",
				"maskFrame": null,
				"layerFrame": {
					"x": 76,
					"y": 4,
					"width": 393,
					"height": 43
				},
				"visible": true,
				"metadata": {
					"opacity": 1
				},
				"children": [
					{
						"objectId": "D9724F33-C610-47CF-BFA5-7287AD559351",
						"kind": "group",
						"name": "search_bar",
						"originalName": "search-bar",
						"maskFrame": null,
						"layerFrame": {
							"x": 76,
							"y": 4,
							"width": 393,
							"height": 43
						},
						"visible": true,
						"metadata": {
							"opacity": 1
						},
						"image": {
							"path": "images/Layer-search_bar-rdk3mjrg.png",
							"frame": {
								"x": 76,
								"y": 4,
								"width": 393,
								"height": 43
							}
						},
						"children": [
							{
								"objectId": "B4ECC0B8-7083-4BEE-BB2D-821EFB0EDD3D",
								"kind": "group",
								"name": "scope_project",
								"originalName": "scope-project",
								"maskFrame": null,
								"layerFrame": {
									"x": 164,
									"y": 8,
									"width": 183,
									"height": 35
								},
								"visible": true,
								"metadata": {
									"opacity": 1
								},
								"image": {
									"path": "images/Layer-scope_project-qjrfq0mw.png",
									"frame": {
										"x": 164,
										"y": 8,
										"width": 183,
										"height": 35
									}
								},
								"children": []
							},
							{
								"objectId": "B6341A45-9D2C-4756-BFE1-1A1CF53FDBB0",
								"kind": "group",
								"name": "scope_group",
								"originalName": "scope-group",
								"maskFrame": null,
								"layerFrame": {
									"x": 80,
									"y": 8,
									"width": 84,
									"height": 35
								},
								"visible": true,
								"metadata": {
									"opacity": 1
								},
								"image": {
									"path": "images/Layer-scope_group-qjyzndfb.png",
									"frame": {
										"x": 80,
										"y": 8,
										"width": 84,
										"height": 35
									}
								},
								"children": []
							},
							{
								"objectId": "A6A712CB-0747-46E7-9A7B-B257DA723834",
								"kind": "text",
								"name": "Placeholder_text",
								"originalName": "Placeholder-text",
								"maskFrame": null,
								"layerFrame": {
									"x": 357,
									"y": 20,
									"width": 40,
									"height": 11
								},
								"visible": true,
								"metadata": {
									"opacity": 1,
									"string": "Search",
									"css": [
										"/* Search: */",
										"font-family: SourceSansPro-Regular;",
										"font-size: 14px;",
										"color: #AAAAAA;",
										"letter-spacing: 0;"
									]
								},
								"image": {
									"path": "images/Layer-Placeholder_text-qtzbnzey.png",
									"frame": {
										"x": 357,
										"y": 20,
										"width": 40,
										"height": 11
									}
								},
								"children": []
							},
							{
								"objectId": "937B05B3-AF94-44DD-BBD9-9626E45FB428",
								"kind": "text",
								"name": "search_icon",
								"originalName": "search-icon",
								"maskFrame": null,
								"layerFrame": {
									"x": 441,
									"y": 18,
									"width": 14,
									"height": 15
								},
								"visible": true,
								"metadata": {
									"opacity": 1,
									"string": "",
									"css": [
										"/* search-icon: */",
										"font-family: FontAwesome;",
										"font-size: 15px;",
										"color: #E1E1E1;",
										"letter-spacing: 0;"
									]
								},
								"image": {
									"path": "images/Layer-search_icon-otm3qja1.png",
									"frame": {
										"x": 441,
										"y": 18,
										"width": 14,
										"height": 15
									}
								},
								"children": []
							},
							{
								"objectId": "A5FB68DE-292A-49A9-88F4-265750018AD9",
								"kind": "group",
								"name": "text_field_focus",
								"originalName": "text-field-focus",
								"maskFrame": null,
								"layerFrame": {
									"x": 76,
									"y": 4,
									"width": 393,
									"height": 43
								},
								"visible": true,
								"metadata": {
									"opacity": 1
								},
								"image": {
									"path": "images/Layer-text_field_focus-qtvgqjy4.png",
									"frame": {
										"x": 76,
										"y": 4,
										"width": 393,
										"height": 43
									}
								},
								"children": []
							},
							{
								"objectId": "79E5C05C-2336-4157-9956-E1D696E1C8BE",
								"kind": "group",
								"name": "text_field",
								"originalName": "text-field",
								"maskFrame": null,
								"layerFrame": {
									"x": 80,
									"y": 8,
									"width": 385,
									"height": 35
								},
								"visible": true,
								"metadata": {
									"opacity": 1
								},
								"image": {
									"path": "images/Layer-text_field-nzlfnumw.png",
									"frame": {
										"x": 80,
										"y": 8,
										"width": 385,
										"height": 35
									}
								},
								"children": []
							}
						]
					}
				]
			},
			{
				"objectId": "804D2BFD-EC5B-4693-9566-49D90B5B2FF6",
				"kind": "group",
				"name": "navigation_1_project",
				"originalName": "navigation-1__project",
				"maskFrame": null,
				"layerFrame": {
					"x": 518,
					"y": 16,
					"width": 592,
					"height": 35
				},
				"visible": true,
				"metadata": {
					"opacity": 1
				},
				"children": [
					{
						"objectId": "E67A5B9D-C5E9-4217-B89A-92C09B6BF092",
						"kind": "group",
						"name": "tabs",
						"originalName": "tabs",
						"maskFrame": null,
						"layerFrame": {
							"x": 518,
							"y": 16,
							"width": 592,
							"height": 35
						},
						"visible": true,
						"metadata": {
							"opacity": 1
						},
						"children": [
							{
								"objectId": "9D256600-F578-4AF3-B70A-9E720ADC839E",
								"kind": "group",
								"name": "project",
								"originalName": "project",
								"maskFrame": null,
								"layerFrame": {
									"x": 518,
									"y": 18,
									"width": 65,
									"height": 33
								},
								"visible": true,
								"metadata": {
									"opacity": 1
								},
								"image": {
									"path": "images/Layer-project-ouqynty2.png",
									"frame": {
										"x": 518,
										"y": 18,
										"width": 65,
										"height": 33
									}
								},
								"children": []
							},
							{
								"objectId": "835EEE61-93C9-4C27-B6F5-642A2A7D2C4A",
								"kind": "group",
								"name": "activity",
								"originalName": "activity",
								"maskFrame": null,
								"layerFrame": {
									"x": 583,
									"y": 1,
									"width": 67,
									"height": 50
								},
								"visible": false,
								"metadata": {
									"opacity": 1
								},
								"image": {
									"path": "images/Layer-activity-odm1ruvf.png",
									"frame": {
										"x": 583,
										"y": 1,
										"width": 67,
										"height": 50
									}
								},
								"children": []
							},
							{
								"objectId": "EC198D1E-71B5-46E1-97FE-2834D0811952",
								"kind": "group",
								"name": "respository",
								"originalName": "respository",
								"maskFrame": null,
								"layerFrame": {
									"x": 594,
									"y": 18,
									"width": 67,
									"height": 15
								},
								"visible": true,
								"metadata": {
									"opacity": 1
								},
								"image": {
									"path": "images/Layer-respository-rumxothe.png",
									"frame": {
										"x": 594,
										"y": 18,
										"width": 67,
										"height": 15
									}
								},
								"children": []
							},
							{
								"objectId": "A290A2D7-CFFC-4ABA-AB7B-7ACBFDDE6B57",
								"kind": "group",
								"name": "pipelines",
								"originalName": "pipelines",
								"maskFrame": null,
								"layerFrame": {
									"x": 935,
									"y": 18,
									"width": 56,
									"height": 15
								},
								"visible": true,
								"metadata": {
									"opacity": 1
								},
								"image": {
									"path": "images/Layer-pipelines-qti5meey.png",
									"frame": {
										"x": 935,
										"y": 18,
										"width": 56,
										"height": 15
									}
								},
								"children": []
							},
							{
								"objectId": "DB5D6C4C-BF43-46C9-98FF-81EF0B422EDD",
								"kind": "group",
								"name": "graphs",
								"originalName": "graphs",
								"maskFrame": null,
								"layerFrame": {
									"x": 816,
									"y": 1,
									"width": 65,
									"height": 50
								},
								"visible": false,
								"metadata": {
									"opacity": 1
								},
								"image": {
									"path": "images/Layer-graphs-rei1rdzd.png",
									"frame": {
										"x": 816,
										"y": 1,
										"width": 65,
										"height": 50
									}
								},
								"children": []
							},
							{
								"objectId": "DB6B48DF-02F6-4303-897D-BF3E0EFB88B8",
								"kind": "group",
								"name": "issues",
								"originalName": "issues",
								"maskFrame": null,
								"layerFrame": {
									"x": 682,
									"y": 16,
									"width": 75,
									"height": 19
								},
								"visible": true,
								"metadata": {
									"opacity": 1
								},
								"image": {
									"path": "images/Layer-issues-rei2qjq4.png",
									"frame": {
										"x": 682,
										"y": 16,
										"width": 75,
										"height": 19
									}
								},
								"children": [
									{
										"objectId": "6F4971E9-E117-4606-B590-64772665944A",
										"kind": "group",
										"name": "count_badge",
										"originalName": "count-badge",
										"maskFrame": null,
										"layerFrame": {
											"x": 723,
											"y": 16,
											"width": 34,
											"height": 19
										},
										"visible": true,
										"metadata": {
											"opacity": 1
										},
										"image": {
											"path": "images/Layer-count_badge-nky0otcx.png",
											"frame": {
												"x": 723,
												"y": 16,
												"width": 34,
												"height": 19
											}
										},
										"children": []
									}
								]
							},
							{
								"objectId": "696512DF-8E15-4BBF-AF32-71C67C2E4C7A",
								"kind": "group",
								"name": "merge_requests",
								"originalName": "merge-requests",
								"maskFrame": null,
								"layerFrame": {
									"x": 778,
									"y": 16,
									"width": 136,
									"height": 19
								},
								"visible": true,
								"metadata": {
									"opacity": 1
								},
								"image": {
									"path": "images/Layer-merge_requests-njk2ntey.png",
									"frame": {
										"x": 778,
										"y": 16,
										"width": 136,
										"height": 19
									}
								},
								"children": [
									{
										"objectId": "68D0B904-F11C-4673-A7F1-67E254FDA895",
										"kind": "group",
										"name": "count_badge1",
										"originalName": "count-badge",
										"maskFrame": null,
										"layerFrame": {
											"x": 880,
											"y": 16,
											"width": 34,
											"height": 19
										},
										"visible": true,
										"metadata": {
											"opacity": 1
										},
										"image": {
											"path": "images/Layer-count_badge-njhemei5.png",
											"frame": {
												"x": 880,
												"y": 16,
												"width": 34,
												"height": 19
											}
										},
										"children": []
									}
								]
							},
							{
								"objectId": "CD697825-0FDF-4E22-ACE9-CAFF1C9B6FCA",
								"kind": "group",
								"name": "wiki_copy",
								"originalName": "wiki copy",
								"maskFrame": null,
								"layerFrame": {
									"x": 1059,
									"y": 18,
									"width": 51,
									"height": 15
								},
								"visible": true,
								"metadata": {
									"opacity": 1
								},
								"image": {
									"path": "images/Layer-wiki_copy-q0q2otc4.png",
									"frame": {
										"x": 1059,
										"y": 18,
										"width": 51,
										"height": 15
									}
								},
								"children": []
							},
							{
								"objectId": "BCC5CD31-018B-49B2-B1FD-8E9D60CB5CB4",
								"kind": "group",
								"name": "wiki",
								"originalName": "wiki",
								"maskFrame": null,
								"layerFrame": {
									"x": 1012,
									"y": 18,
									"width": 26,
									"height": 11
								},
								"visible": true,
								"metadata": {
									"opacity": 1
								},
								"image": {
									"path": "images/Layer-wiki-qkndnune.png",
									"frame": {
										"x": 1012,
										"y": 18,
										"width": 26,
										"height": 11
									}
								},
								"children": []
							}
						]
					}
				]
			},
			{
				"objectId": "256EADF2-12D8-4ED8-B972-A10F4243B572",
				"kind": "group",
				"name": "top_bar_project",
				"originalName": "top-bar--project",
				"maskFrame": null,
				"layerFrame": {
					"x": 0,
					"y": 0,
					"width": 1280,
					"height": 51
				},
				"visible": true,
				"metadata": {
					"opacity": 1
				},
				"image": {
					"path": "images/Layer-top_bar_project-mju2rufe.png",
					"frame": {
						"x": 0,
						"y": 0,
						"width": 1280,
						"height": 51
					}
				},
				"children": [
					{
						"objectId": "D632E235-A2B1-42E5-A3ED-7C814E6ABEF2",
						"kind": "text",
						"name": "hamburger_title",
						"originalName": "hamburger-title",
						"maskFrame": null,
						"layerFrame": {
							"x": 16,
							"y": 19,
							"width": 15,
							"height": 13
						},
						"visible": true,
						"metadata": {
							"opacity": 1,
							"string": "",
							"css": [
								"/* hamburger: */",
								"font-family: FontAwesome;",
								"font-size: 17px;",
								"color: #595959;",
								"letter-spacing: 0;"
							]
						},
						"image": {
							"path": "images/Layer-hamburger_title-rdyzmkuy.png",
							"frame": {
								"x": 16,
								"y": 19,
								"width": 15,
								"height": 13
							}
						},
						"children": []
					},
					{
						"objectId": "32CAA991-1F39-40B2-8D7B-523FF69D1347",
						"kind": "group",
						"name": "actions",
						"originalName": "actions",
						"maskFrame": null,
						"layerFrame": {
							"x": 1190,
							"y": 11,
							"width": 74,
							"height": 26
						},
						"visible": true,
						"metadata": {
							"opacity": 1
						},
						"image": {
							"path": "images/Layer-actions-mzjdque5.png",
							"frame": {
								"x": 1190,
								"y": 11,
								"width": 74,
								"height": 26
							}
						},
						"children": [
							{
								"objectId": "28DBEB7B-26D6-4B2D-BAD9-11DD13C6058C",
								"kind": "group",
								"name": "todos",
								"originalName": "todos",
								"maskFrame": null,
								"layerFrame": {
									"x": 1190,
									"y": 15,
									"width": 19,
									"height": 19
								},
								"visible": true,
								"metadata": {
									"opacity": 1
								},
								"image": {
									"path": "images/Layer-todos-mjheqkvc.png",
									"frame": {
										"x": 1190,
										"y": 15,
										"width": 19,
										"height": 19
									}
								},
								"children": [
									{
										"objectId": "F7A705AD-A4A3-4BAA-BB40-9A3E632C6CE0",
										"kind": "group",
										"name": "badge",
										"originalName": "badge",
										"maskFrame": null,
										"layerFrame": {
											"x": 1197,
											"y": 18,
											"width": 12,
											"height": 13
										},
										"visible": true,
										"metadata": {
											"opacity": 1
										},
										"image": {
											"path": "images/Layer-badge-rjdbnza1.png",
											"frame": {
												"x": 1197,
												"y": 18,
												"width": 12,
												"height": 13
											}
										},
										"children": []
									}
								]
							},
							{
								"objectId": "571E84CB-D098-45D9-A730-457E8DF79BF9",
								"kind": "group",
								"name": "user_picture",
								"originalName": "user-picture",
								"maskFrame": {
									"x": 0,
									"y": 0,
									"width": 26,
									"height": 26
								},
								"layerFrame": {
									"x": 1223,
									"y": 11,
									"width": 26,
									"height": 26
								},
								"visible": true,
								"metadata": {
									"opacity": 1
								},
								"image": {
									"path": "images/Layer-user_picture-ntcxrtg0.png",
									"frame": {
										"x": 1223,
										"y": 11,
										"width": 26,
										"height": 26
									}
								},
								"children": []
							}
						]
					},
					{
						"objectId": "385B9625-B9B1-4EC5-B1F6-795CBEA6FE52",
						"kind": "group",
						"name": "gitlab_logo",
						"originalName": "gitlab-logo",
						"maskFrame": null,
						"layerFrame": {
							"x": 42,
							"y": 13,
							"width": 27,
							"height": 25
						},
						"visible": true,
						"metadata": {
							"opacity": 1
						},
						"children": [
							{
								"objectId": "6E61A56D-0126-4705-8F9A-678A8F96CDA2",
								"kind": "group",
								"name": "Group",
								"originalName": "Group",
								"maskFrame": null,
								"layerFrame": {
									"x": 42,
									"y": 13,
									"width": 27,
									"height": 25
								},
								"visible": true,
								"metadata": {
									"opacity": 1
								},
								"children": [
									{
										"objectId": "6A87943B-66DF-4183-8881-C04310F85301",
										"kind": "group",
										"name": "Page_1",
										"originalName": "Page-1",
										"maskFrame": null,
										"layerFrame": {
											"x": 42,
											"y": 13,
											"width": 27,
											"height": 25
										},
										"visible": true,
										"metadata": {
											"opacity": 1
										},
										"children": [
											{
												"objectId": "1CAA05F8-D2B7-4353-957E-8A4DC8935889",
												"kind": "group",
												"name": "Fill_1_Group_24",
												"originalName": "Fill-1-+-Group-24",
												"maskFrame": null,
												"layerFrame": {
													"x": 42,
													"y": 13,
													"width": 27,
													"height": 25
												},
												"visible": true,
												"metadata": {
													"opacity": 1
												},
												"children": [
													{
														"objectId": "3A368938-FF87-427A-89F4-9E704712CCF3",
														"kind": "group",
														"name": "Group_24",
														"originalName": "Group-24",
														"maskFrame": null,
														"layerFrame": {
															"x": 42,
															"y": 13,
															"width": 27,
															"height": 25
														},
														"visible": true,
														"metadata": {
															"opacity": 1
														},
														"children": [
															{
																"objectId": "DE653286-DBF8-455A-BC0F-92C6534D54AD",
																"kind": "group",
																"name": "Group1",
																"originalName": "Group",
																"maskFrame": null,
																"layerFrame": {
																	"x": 42,
																	"y": 13,
																	"width": 27,
																	"height": 25
																},
																"visible": true,
																"metadata": {
																	"opacity": 1
																},
																"image": {
																	"path": "images/Layer-Group-reu2ntmy.png",
																	"frame": {
																		"x": 42,
																		"y": 13,
																		"width": 27,
																		"height": 25
																	}
																},
																"children": []
															}
														]
													}
												]
											}
										]
									}
								]
							}
						]
					}
				]
			}
		]
	}
]