{
  "_class": "group",
  "do_objectID": "F5CE1056-BE3F-481A-B462-E78368566350",
  "exportOptions": {
    "_class": "exportOptions",
    "exportFormats": [
    ],
    "includedLayerIds": [
    ],
    "layerOptions": 0,
    "shouldTrim": false
  },
  "frame": {
    "_class": "rect",
    "constrainProportions": false,
    "height": 23.80165289256198,
    "width": 26,
    "x": 0,
    "y": 0
  },
  "hasClickThrough": false,
  "isFlippedHorizontal": false,
  "isFlippedVertical": false,
  "isLocked": false,
  "isVisible": true,
  "layerListExpandedType": 0,
  "layers": [
    {
      "class": "shapeGroup",
      "id": "8CF2B38E-F9F8-4E08-906B-6962A0A8674A"
    },
    {
      "class": "shapeGroup",
      "id": "1FB97DE5-1E5E-41BE-8422-5FD64FBC5BF9"
    },
    {
      "class": "shapeGroup",
      "id": "4C58561B-0B8C-436D-A366-6C00E3A5A3F1"
    },
    {
      "class": "shapeGroup",
      "id": "97A35B2F-6481-4191-BCBA-15CDA8F8AC23"
    },
    {
      "class": "shapeGroup",
      "id": "65D11AEB-3FFE-4234-924C-54E9FE3EA49F"
    },
    {
      "class": "shapeGroup",
      "id": "86CEB5FD-6432-4C18-AC12-0383B39E9B7B"
    },
    {
      "class": "shapeGroup",
      "id": "4A3A3C30-ED79-4FB2-8BF6-8B87E1634896"
    }
  ],
  "name": "Group",
  "nameIsFixed": false,
  "resizingConstraint": 63,
  "resizingType": 0,
  "rotation": 0,
  "shouldBreakMaskChain": false,
  "style": {
    "_class": "style",
    "endDecorationType": 0,
    "miterLimit": 10,
    "startDecorationType": 0
  }
}