{
  "_class": "group",
  "do_objectID": "7CE366C3-1BAF-48E7-AC0F-6F466B397BA1",
  "exportOptions": {
    "_class": "exportOptions",
    "exportFormats": [
    ],
    "includedLayerIds": [
    ],
    "layerOptions": 0,
    "shouldTrim": false
  },
  "frame": {
    "_class": "rect",
    "constrainProportions": false,
    "height": 28,
    "width": 527,
    "x": 607,
    "y": 622
  },
  "hasClickThrough": false,
  "isFlippedHorizontal": false,
  "isFlippedVertical": false,
  "isLocked": false,
  "isVisible": true,
  "layerListExpandedType": 2,
  "layers": [
    {
      "class": "shapeGroup",
      "id": "105EC142-C239-4920-B730-00BADBB9A10F"
    },
    {
      "class": "shapeGroup",
      "id": "039BC90D-DAC5-4E84-AD9F-DBC780419AC6"
    },
    {
      "class": "shapeGroup",
      "id": "583C79B8-F5D6-4E3D-92F0-BDF62A69F130"
    },
    {
      "class": "text",
      "id": "8D660107-27A8-493E-8812-E51ADDFB9F40"
    }
  ],
  "name": "new_epic copy 8",
  "nameIsFixed": true,
  "resizingConstraint": 63,
  "resizingType": 0,
  "rotation": 0,
  "shouldBreakMaskChain": false,
  "style": {
    "_class": "style",
    "endDecorationType": 0,
    "miterLimit": 10,
    "startDecorationType": 0
  }
}