{
  "_class": "group",
  "do_objectID": "BFBD365D-F68B-44FC-B7B1-EDDE6FE99D3E",
  "exportOptions": {
    "_class": "exportOptions",
    "exportFormats": [
    ],
    "includedLayerIds": [
    ],
    "layerOptions": 0,
    "shouldTrim": false
  },
  "frame": {
    "_class": "rect",
    "constrainProportions": false,
    "height": 32,
    "width": 60,
    "x": 236,
    "y": 112
  },
  "hasClickThrough": false,
  "isFlippedHorizontal": false,
  "isFlippedVertical": false,
  "isLocked": false,
  "isVisible": true,
  "layerListExpandedType": 1,
  "layers": [
    {
      "class": "shapeGroup",
      "id": "F3494B7D-3741-4378-9BFD-2F1713A5D5C1"
    },
    {
      "class": "text",
      "id": "9FF14DB9-82B7-428A-974C-BA30D9E7A9B3"
    }
  ],
  "name": "global-components/buttons/variations/group/left",
  "nameIsFixed": false,
  "resizingConstraint": 63,
  "resizingType": 0,
  "rotation": 0,
  "shouldBreakMaskChain": false,
  "style": {
    "_class": "style",
    "endDecorationType": 0,
    "miterLimit": 10,
    "startDecorationType": 0
  }
}